FUNCT-DATAPATH_PIPELINING/simulation/qsim/Datapath_pipelining.msim.vcd
$comment
	File created using the following command:
		vcd file Datapath_pipelining.msim.vcd -direction
$end
$date
	Wed May 31 00:04:41 2023
$end
$version
	ModelSim Version 10.1d
$end
$timescale
	1ps
$end
$scope module Datapath_pipelining_vlg_vec_tst $end
$var reg 8 ! A [7:0] $end
$var reg 8 " B [7:0] $end
$var reg 1 # CLK $end
$var reg 1 $ START $end
$var wire 1 % DONE $end
$var wire 1 & RESULT [7] $end
$var wire 1 ' RESULT [6] $end
$var wire 1 ( RESULT [5] $end
$var wire 1 ) RESULT [4] $end
$var wire 1 * RESULT [3] $end
$var wire 1 + RESULT [2] $end
$var wire 1 , RESULT [1] $end
$var wire 1 - RESULT [0] $end
$var wire 1 . sampler $end
$scope module i1 $end
$var wire 1 / gnd $end
$var wire 1 0 vcc $end
$var wire 1 1 unknown $end
$var tri1 1 2 devclrn $end
$var tri1 1 3 devpor $end
$var tri1 1 4 devoe $end
$var wire 1 5 inst|inst3|inst19~0_combout $end
$var wire 1 6 inst4|inst|inst10~regout $end
$var wire 1 7 inst4|inst18[7]~0_combout $end
$var wire 1 8 inst4|inst18[6]~4_combout $end
$var wire 1 9 inst4|inst18[5]~7_combout $end
$var wire 1 : inst4|inst17[4]~0_combout $end
$var wire 1 ; inst4|inst17[3]~2_combout $end
$var wire 1 < inst4|inst17[2]~4_combout $end
$var wire 1 = inst4|inst17[1]~6_combout $end
$var wire 1 > inst4|inst17[0]~8_combout $end
$var wire 1 ? inst4|inst13|inst|inst~regout $end
$var wire 1 @ inst4|inst13|inst7|inst~regout $end
$var wire 1 A inst4|inst13|inst6|inst~regout $end
$var wire 1 B inst4|inst13|inst5|inst~regout $end
$var wire 1 C inst4|inst13|inst4|inst~regout $end
$var wire 1 D inst4|inst13|inst3|inst~regout $end
$var wire 1 E inst4|inst13|inst2|inst~regout $end
$var wire 1 F inst4|inst13|inst1|inst~regout $end
$var wire 1 G inst4|inst2|inst|inst~regout $end
$var wire 1 H inst4|inst2|inst1|inst~regout $end
$var wire 1 I inst4|inst21|inst|inst22~combout $end
$var wire 1 J inst4|inst2|inst3|inst~regout $end
$var wire 1 K inst4|inst21|inst|inst4|inst6~0_combout $end
$var wire 1 L inst4|inst21|inst|inst26~combout $end
$var wire 1 M inst4|inst2|inst7|inst~regout $end
$var wire 1 N inst4|inst2|inst6|inst~regout $end
$var wire 1 O inst4|inst2|inst5|inst~regout $end
$var wire 1 P inst4|inst2|inst4|inst~regout $end
$var wire 1 Q inst4|inst2|inst2|inst~regout $end
$var wire 1 R inst4|R1|inst1|inst6~0_combout $end
$var wire 1 S inst4|R1|inst2|inst6~0_combout $end
$var wire 1 T inst4|R1|inst4|inst6~0_combout $end
$var wire 1 U inst|inst1|inst21~0_combout $end
$var wire 1 V inst4|inst2|inst|inst4~0_combout $end
$var wire 1 W inst|inst1|inst37~0_combout $end
$var wire 1 X inst4|inst2|inst1|inst4~0_combout $end
$var wire 1 Y inst4|inst2|inst3|inst4~0_combout $end
$var wire 1 Z inst4|inst2|inst7|inst4~0_combout $end
$var wire 1 [ inst4|inst2|inst6|inst4~0_combout $end
$var wire 1 \ inst4|inst2|inst5|inst4~0_combout $end
$var wire 1 ] inst4|inst2|inst4|inst4~0_combout $end
$var wire 1 ^ inst4|inst2|inst2|inst4~0_combout $end
$var wire 1 _ inst4|R1|inst7|inst6~0_combout $end
$var wire 1 ` inst4|R1|inst6|inst6~0_combout $end
$var wire 1 a CLK~combout $end
$var wire 1 b inst|inst3|inst20~0_combout $end
$var wire 1 c inst|inst1|inst22~1_combout $end
$var wire 1 d inst|inst1|inst14~0_combout $end
$var wire 1 e inst|inst3|inst~0_combout $end
$var wire 1 f inst|inst|inst~regout $end
$var wire 1 g inst|inst3|inst17~0_combout $end
$var wire 1 h inst|inst|inst1~regout $end
$var wire 1 i inst|inst3|inst18~0_combout $end
$var wire 1 j START~combout $end
$var wire 1 k inst|inst3|inst18~1_combout $end
$var wire 1 l inst|inst|inst2~regout $end
$var wire 1 m inst|inst3|inst19~1_combout $end
$var wire 1 n inst|inst|inst3~regout $end
$var wire 1 o inst|inst1|inst29~0_combout $end
$var wire 1 p inst|inst1|inst22~2_combout $end
$var wire 1 q inst4|inst18[7]~15_combout $end
$var wire 1 r inst|inst1|inst41~combout $end
$var wire 1 s inst4|inst14|inst|inst~regout $end
$var wire 1 t inst|inst1|inst25~0_combout $end
$var wire 1 u inst|inst1|inst22~3_combout $end
$var wire 1 v inst4|inst15[7]~0_combout $end
$var wire 1 w inst4|R1|inst|inst6~9_combout $end
$var wire 1 x inst|inst1|inst11~0_combout $end
$var wire 1 y inst4|inst4[3]~6_combout $end
$var wire 1 z inst|inst1|inst68~combout $end
$var wire 1 { inst|inst1|inst22~4_combout $end
$var wire 1 | inst|inst1|inst46~0_combout $end
$var wire 1 } inst4|R1|inst5|inst6~0_combout $end
$var wire 1 ~ inst4|inst4[0]~3_combout $end
$var wire 1 !! inst4|inst21|inst|inst8|inst3~combout $end
$var wire 1 "! inst4|inst21|inst5~regout $end
$var wire 1 #! inst4|inst21|inst11|inst17|inst2~0_combout $end
$var wire 1 $! inst4|inst4[6]~1_combout $end
$var wire 1 %! inst4|R1|inst3|inst6~0_combout $end
$var wire 1 &! inst|inst1|inst15~0_combout $end
$var wire 1 '! inst|inst1|inst33~combout $end
$var wire 1 (! inst4|R1|inst3|inst~regout $end
$var wire 1 )! inst4|inst4[4]~2_combout $end
$var wire 1 *! inst4|inst21|inst|inst4|inst2~combout $end
$var wire 1 +! inst4|inst21|inst|inst4|inst6~1_combout $end
$var wire 1 ,! inst4|inst21|inst|inst3|inst4~combout $end
$var wire 1 -! inst4|inst21|inst11|inst12|inst2~0_combout $end
$var wire 1 .! inst4|R1|inst2|inst~0_combout $end
$var wire 1 /! inst4|R1|inst2|inst~regout $end
$var wire 1 0! inst4|inst4[5]~7_combout $end
$var wire 1 1! inst4|inst21|inst|inst3|inst6~0_combout $end
$var wire 1 2! inst4|inst21|inst|inst2|inst4~combout $end
$var wire 1 3! inst4|inst21|inst11|inst11|inst2~0_combout $end
$var wire 1 4! inst4|R1|inst1|inst~0_combout $end
$var wire 1 5! inst4|R1|inst1|inst~regout $end
$var wire 1 6! inst4|inst21|inst|inst21~combout $end
$var wire 1 7! inst4|inst21|inst11|inst|inst2~0_combout $end
$var wire 1 8! inst4|R1|inst|inst~0_combout $end
$var wire 1 9! inst4|R1|inst|inst~regout $end
$var wire 1 :! inst4|inst4[7]~0_combout $end
$var wire 1 ;! inst4|R1|inst|inst6~8_combout $end
$var wire 1 <! inst4|inst21|inst|inst|inst4~0_combout $end
$var wire 1 =! inst4|inst21|inst|inst|inst4~combout $end
$var wire 1 >! inst4|inst21|inst8~regout $end
$var wire 1 ?! inst|inst1|inst63~0_combout $end
$var wire 1 @! inst|inst|inst2~_wirecell_combout $end
$var wire 1 A! inst4|inst21|inst9~regout $end
$var wire 1 B! inst4|inst21|inst7~combout $end
$var wire 1 C! inst4|R1|inst7|inst~0_combout $end
$var wire 1 D! inst4|R1|inst7|inst~regout $end
$var wire 1 E! inst4|inst21|inst|inst8|inst6~0_combout $end
$var wire 1 F! inst4|inst21|inst|inst7|inst4~0_combout $end
$var wire 1 G! inst4|inst21|inst11|inst16|inst2~0_combout $end
$var wire 1 H! inst4|R1|inst6|inst~0_combout $end
$var wire 1 I! inst4|R1|inst6|inst~regout $end
$var wire 1 J! inst4|inst4[1]~4_combout $end
$var wire 1 K! inst4|inst21|inst|inst7|inst6~0_combout $end
$var wire 1 L! inst4|inst21|inst|inst6|inst4~combout $end
$var wire 1 M! inst4|inst21|inst11|inst15|inst2~0_combout $end
$var wire 1 N! inst4|R1|inst5|inst~0_combout $end
$var wire 1 O! inst4|R1|inst5|inst~regout $end
$var wire 1 P! inst4|inst4[2]~5_combout $end
$var wire 1 Q! inst4|inst21|inst|inst6|inst6~0_combout $end
$var wire 1 R! inst4|inst21|inst|inst5|inst4~combout $end
$var wire 1 S! inst4|inst21|inst11|inst14|inst2~0_combout $end
$var wire 1 T! inst4|R1|inst4|inst~0_combout $end
$var wire 1 U! inst4|R1|inst4|inst~regout $end
$var wire 1 V! inst4|inst21|inst|inst24~combout $end
$var wire 1 W! inst4|inst21|inst|inst4|inst4~0_combout $end
$var wire 1 X! inst4|inst21|inst|inst4|inst4~combout $end
$var wire 1 Y! inst4|inst21|inst11|inst13|inst2~0_combout $end
$var wire 1 Z! inst4|R1|inst3|inst~0_combout $end
$var wire 1 [! inst4|inst18[1]~21_combout $end
$var wire 1 \! inst4|inst14|inst6|inst~regout $end
$var wire 1 ]! inst4|inst18[0]~22_combout $end
$var wire 1 ^! inst4|inst14|inst7|inst~regout $end
$var wire 1 _! inst4|inst|inst|inst8|inst6~0_combout $end
$var wire 1 `! inst|inst1|inst73~0_combout $end
$var wire 1 a! inst4|inst3|inst6|inst~regout $end
$var wire 1 b! inst4|inst15[1]~2_combout $end
$var wire 1 c! inst4|inst|inst|inst7|inst6~0_combout $end
$var wire 1 d! inst4|inst3|inst5|inst~regout $end
$var wire 1 e! inst4|inst15[2]~3_combout $end
$var wire 1 f! inst4|inst|inst|inst6|inst6~0_combout $end
$var wire 1 g! inst4|inst3|inst4|inst~regout $end
$var wire 1 h! inst4|inst15[3]~4_combout $end
$var wire 1 i! inst4|inst|inst|inst5|inst6~0_combout $end
$var wire 1 j! inst4|inst3|inst3|inst~regout $end
$var wire 1 k! inst4|inst15[4]~5_combout $end
$var wire 1 l! inst4|inst|inst|inst4|inst6~0_combout $end
$var wire 1 m! inst4|inst3|inst2|inst~regout $end
$var wire 1 n! inst4|inst15[5]~6_combout $end
$var wire 1 o! inst4|inst|inst|inst3|inst6~0_combout $end
$var wire 1 p! inst4|inst3|inst1|inst~regout $end
$var wire 1 q! inst4|inst15[6]~7_combout $end
$var wire 1 r! inst4|inst|inst|inst2|inst6~0_combout $end
$var wire 1 s! inst4|inst|inst|inst|inst4~combout $end
$var wire 1 t! inst|inst1|inst70~combout $end
$var wire 1 u! inst4|inst|inst11~regout $end
$var wire 1 v! inst4|inst18[7]~1_combout $end
$var wire 1 w! inst4|inst18[7]~2_combout $end
$var wire 1 x! inst|inst1|inst22~0_combout $end
$var wire 1 y! inst4|inst18[7]~3_combout $end
$var wire 1 z! inst4|inst18[6]~16_combout $end
$var wire 1 {! inst4|inst14|inst1|inst~regout $end
$var wire 1 |! inst4|inst|inst|inst2|inst4~combout $end
$var wire 1 }! inst4|inst18[6]~5_combout $end
$var wire 1 ~! inst4|inst18[6]~6_combout $end
$var wire 1 !" inst4|inst18[5]~17_combout $end
$var wire 1 "" inst4|inst14|inst2|inst~regout $end
$var wire 1 #" inst4|inst|inst|inst3|inst4~combout $end
$var wire 1 $" inst4|inst18[5]~8_combout $end
$var wire 1 %" inst4|inst18[5]~9_combout $end
$var wire 1 &" inst4|inst18[4]~18_combout $end
$var wire 1 '" inst4|inst14|inst3|inst~regout $end
$var wire 1 (" inst4|inst|inst|inst4|inst4~combout $end
$var wire 1 )" inst4|inst17[4]~1_combout $end
$var wire 1 *" inst4|inst18[4]~10_combout $end
$var wire 1 +" inst4|inst18[3]~19_combout $end
$var wire 1 ," inst4|inst14|inst4|inst~regout $end
$var wire 1 -" inst4|inst|inst|inst5|inst4~combout $end
$var wire 1 ." inst4|inst17[3]~3_combout $end
$var wire 1 /" inst4|inst18[3]~11_combout $end
$var wire 1 0" inst4|inst18[2]~20_combout $end
$var wire 1 1" inst4|inst14|inst5|inst~regout $end
$var wire 1 2" inst4|inst|inst|inst6|inst4~combout $end
$var wire 1 3" inst4|inst17[2]~5_combout $end
$var wire 1 4" inst4|inst18[2]~12_combout $end
$var wire 1 5" inst4|inst|inst|inst7|inst4~combout $end
$var wire 1 6" inst4|inst17[1]~7_combout $end
$var wire 1 7" inst4|inst18[1]~13_combout $end
$var wire 1 8" inst4|inst3|inst7|inst~regout $end
$var wire 1 9" inst4|inst15[0]~1_combout $end
$var wire 1 :" inst4|inst|inst|inst8|inst4~0_combout $end
$var wire 1 ;" inst4|inst17[0]~9_combout $end
$var wire 1 <" inst4|inst18[0]~14_combout $end
$var wire 1 =" inst4|inst21|inst6 [7] $end
$var wire 1 >" inst4|inst21|inst6 [6] $end
$var wire 1 ?" inst4|inst21|inst6 [5] $end
$var wire 1 @" inst4|inst21|inst6 [4] $end
$var wire 1 A" inst4|inst21|inst6 [3] $end
$var wire 1 B" inst4|inst21|inst6 [2] $end
$var wire 1 C" inst4|inst21|inst6 [1] $end
$var wire 1 D" inst4|inst21|inst6 [0] $end
$var wire 1 E" inst4|inst21|inst4 [7] $end
$var wire 1 F" inst4|inst21|inst4 [6] $end
$var wire 1 G" inst4|inst21|inst4 [5] $end
$var wire 1 H" inst4|inst21|inst4 [4] $end
$var wire 1 I" inst4|inst21|inst4 [3] $end
$var wire 1 J" inst4|inst21|inst4 [2] $end
$var wire 1 K" inst4|inst21|inst4 [1] $end
$var wire 1 L" inst4|inst21|inst4 [0] $end
$var wire 1 M" inst4|inst21|inst10 [7] $end
$var wire 1 N" inst4|inst21|inst10 [6] $end
$var wire 1 O" inst4|inst21|inst10 [5] $end
$var wire 1 P" inst4|inst21|inst10 [4] $end
$var wire 1 Q" inst4|inst21|inst10 [3] $end
$var wire 1 R" inst4|inst21|inst10 [2] $end
$var wire 1 S" inst4|inst21|inst10 [1] $end
$var wire 1 T" inst4|inst21|inst10 [0] $end
$var wire 1 U" inst4|inst|inst7 [7] $end
$var wire 1 V" inst4|inst|inst7 [6] $end
$var wire 1 W" inst4|inst|inst7 [5] $end
$var wire 1 X" inst4|inst|inst7 [4] $end
$var wire 1 Y" inst4|inst|inst7 [3] $end
$var wire 1 Z" inst4|inst|inst7 [2] $end
$var wire 1 [" inst4|inst|inst7 [1] $end
$var wire 1 \" inst4|inst|inst7 [0] $end
$var wire 1 ]" inst4|inst|inst6 [7] $end
$var wire 1 ^" inst4|inst|inst6 [6] $end
$var wire 1 _" inst4|inst|inst6 [5] $end
$var wire 1 `" inst4|inst|inst6 [4] $end
$var wire 1 a" inst4|inst|inst6 [3] $end
$var wire 1 b" inst4|inst|inst6 [2] $end
$var wire 1 c" inst4|inst|inst6 [1] $end
$var wire 1 d" inst4|inst|inst6 [0] $end
$var wire 1 e" inst4|inst|inst5 [7] $end
$var wire 1 f" inst4|inst|inst5 [6] $end
$var wire 1 g" inst4|inst|inst5 [5] $end
$var wire 1 h" inst4|inst|inst5 [4] $end
$var wire 1 i" inst4|inst|inst5 [3] $end
$var wire 1 j" inst4|inst|inst5 [2] $end
$var wire 1 k" inst4|inst|inst5 [1] $end
$var wire 1 l" inst4|inst|inst5 [0] $end
$var wire 1 m" B~combout [7] $end
$var wire 1 n" B~combout [6] $end
$var wire 1 o" B~combout [5] $end
$var wire 1 p" B~combout [4] $end
$var wire 1 q" B~combout [3] $end
$var wire 1 r" B~combout [2] $end
$var wire 1 s" B~combout [1] $end
$var wire 1 t" B~combout [0] $end
$var wire 1 u" A~combout [7] $end
$var wire 1 v" A~combout [6] $end
$var wire 1 w" A~combout [5] $end
$var wire 1 x" A~combout [4] $end
$var wire 1 y" A~combout [3] $end
$var wire 1 z" A~combout [2] $end
$var wire 1 {" A~combout [1] $end
$var wire 1 |" A~combout [0] $end
$upscope $end
$upscope $end
$enddefinitions $end
#0
$dumpvars
b11111101 !
b11111100 "
0#
1$
0%
z-
z,
z+
z*
z)
z(
z'
z&
x.
0/
10
x1
12
13
14
15
06
07
08
09
0:
0;
0<
0=
0>
0?
0@
0A
0B
0C
0D
0E
0F
0G
0H
0I
0J
0K
0L
0M
0N
0O
0P
0Q
1R
1S
1T
0U
1V
1W
1X
1Y
0Z
0[
1\
1]
1^
1_
1`
0a
0b
0c
0d
0e
0f
0g
0h
0i
1j
0k
0l
1m
0n
0o
0p
1q
0r
0s
0t
0u
1v
0w
0x
1y
0z
0{
0|
1}
1~
1!!
0"!
0#!
1$!
1%!
1&!
1'!
0(!
1)!
0*!
0+!
0,!
0-!
0.!
0/!
10!
01!
02!
03!
04!
05!
06!
07!
08!
09!
1:!
1;!
1<!
0=!
0>!
1?!
1@!
0A!
0B!
0C!
0D!
0E!
0F!
0G!
0H!
0I!
1J!
0K!
0L!
0M!
0N!
0O!
1P!
0Q!
0R!
0S!
0T!
0U!
0V!
1W!
0X!
0Y!
0Z!
1[!
0\!
1]!
0^!
0_!
0`!
0a!
1b!
0c!
0d!
1e!
0f!
0g!
1h!
0i!
0j!
1k!
0l!
0m!
1n!
0o!
0p!
1q!
0r!
1s!
0t!
0u!
1v!
1w!
0x!
0y!
1z!
0{!
1|!
1}!
1~!
1!"
0""
1#"
1$"
1%"
1&"
0'"
1("
1)"
1*"
1+"
0,"
1-"
1."
1/"
10"
01"
12"
13"
14"
15"
16"
17"
08"
19"
1:"
1;"
1<"
0D"
0C"
0B"
0A"
0@"
0?"
0>"
0="
0L"
0K"
0J"
0I"
0H"
0G"
0F"
zE"
0T"
0S"
0R"
0Q"
0P"
0O"
0N"
0M"
0\"
0["
0Z"
0Y"
0X"
0W"
0V"
0U"
0d"
0c"
0b"
0a"
0`"
0_"
0^"
0]"
0l"
0k"
0j"
0i"
0h"
0g"
0f"
0e"
0t"
0s"
1r"
1q"
1p"
1o"
1n"
1m"
1|"
0{"
1z"
1y"
1x"
1w"
1v"
1u"
$end
#5000
1#
1a
0.
1l"
1k"
1j"
1i"
1h"
1g"
1f"
1e"
1U!
1O!
1D!
1A!
19!
15!
1/!
1(!
1L"
1n
1B"
1R"
1C"
1S"
1D"
1T"
1Q
1P
1O
1J
1H
1G
1A"
1Q"
1\"
1@"
1P"
1["
1?"
1O"
1Z"
1>"
1N"
1Y"
1="
1M"
1X"
1W"
1V"
1U"
1>
1=
1<
1;
1:
19
18
17
1B!
1#!
0'!
1|
1w
1i
1b
0W
1U
05
1N!
1H!
1C!
1T!
1Z!
1.!
14!
18!
0Z!
0T!
0N!
0H!
08!
04!
0.!
0`
0J!
1k
0m
1[
1Z
0Y
0]
0\
0[
0V
0X
0^
1F!
#10000
0$
bz1111101 !
bz111101 !
bz11101 !
bz1101 !
bz101 !
bz01 !
bz1 !
bz !
bz1111100 "
bz111100 "
bz11100 "
bz1100 "
bz100 "
bz00 "
bz0 "
bz "
0#
0j
zt"
zs"
zr"
zq"
zp"
zo"
zn"
zm"
z|"
z{"
zz"
zy"
zx"
zw"
zv"
zu"
0a
1.
#15000
1#
1a
0.
1K"
0n
1l
0C"
0S"
1G!
1'!
0&!
0|
1x
0w
15
05"
02"
0-"
0("
0#"
0|!
1t!
0s!
1r!
1o!
1l!
1i!
1f!
1c!
1_!
0@!
1H!
1`
0~
1m
1s!
1|!
1#"
1("
1-"
12"
15"
1[
1K!
0F!
0!!
1L!
#20000
0#
0a
1.
#25000
1#
1a
0.
1u!
0U!
0O!
1J"
1I!
0K"
09!
05!
0/!
0(!
0L"
1n
1C"
0T"
16
1M!
0G!
0#!
0'!
1&!
1z
0x
0i
1g
1W
05
0>
0=
0<
0;
0:
09
08
07
1N!
0H!
0C!
0W!
1V!
1Q!
0L!
1E!
0<!
16!
1L
1K
1I
1J!
1~
0k
0m
1\
0[
0Z
1+!
1=!
12!
1,!
11!
0,!
0=!
02!
#30000
0#
0a
1.
#35000
1#
1a
0.
0J"
1"!
0n
0l
1h
1S"
1T"
0Q
0P
0J
0H
0G
1Y!
1S!
1G!
17!
13!
1-!
1#!
0?!
1|
1x
0W
15
05"
02"
0-"
0("
0#"
0|!
0t!
0s!
0_!
1@!
1Z!
1T!
1H!
18!
14!
1.!
1C!
0V!
0;!
06!
0%!
0}
0T
0S
0R
0I
0J!
0:!
00!
0)!
0$!
0~
0y
1m
15"
0c!
1Y
1]
1[
1V
1X
1^
1Z
0Q!
1L!
1F!
1!!
12"
0f!
1X!
1R!
0+!
1-"
0i!
01!
1,!
1("
0l!
1=!
12!
1#"
0o!
1|!
0r!
1s!
#40000
0#
0a
1.
#45000
1#
1a
0.
0u!
1H"
1I"
1J"
1K"
0A!
1>!
1F"
1G"
1L"
1n
0B"
0S"
0T"
0A"
0Q"
0@"
0P"
0?"
0O"
0>"
0N"
0="
0M"
06
0Y!
0S!
0M!
07!
03!
0-!
1`!
1?!
1i
05
1>
1=
1<
1;
1:
19
18
17
0Z!
0T!
0N!
08!
04!
0.!
1k
0m
0Y
0]
0\
0V
0X
0^
#50000
0#
0a
1.
#55000
1#
1a
0.
18"
1A!
0n
1l
0B!
0`!
0?!
0|
0x
1r
1p
15
05"
02"
0-"
0("
0#"
0|!
0s!
1r!
1o!
1l!
1i!
1f!
1c!
1_!
0@!
1N!
0H!
0C!
1V!
1;!
16!
1%!
1}
1T
1S
1R
1I
1J!
1:!
10!
1)!
1$!
1~
1y
0<"
07"
04"
00"
0/"
0+"
0*"
0&"
0%"
0!"
0~!
0z!
0w!
0]!
0[!
0q
1m
1s!
1|!
1#"
1("
1-"
12"
15"
1\
0[
0Z
1Q!
0L!
0F!
0!!
0X!
0R!
1+!
11!
0,!
0=!
02!
#60000
0#
0a
1.
#65000
1#
1a
0.
0H"
0I"
0J"
0K"
0A!
0>!
0F"
0G"
0L"
1n
1B"
1S"
1T"
1B
1A"
1Q"
1@"
1P"
1?"
1O"
1>"
1N"
1="
1M"
16
1Y!
1S!
1M!
17!
13!
1-!
1?!
1'!
1t
0r
0p
0i
0g
1c
1W
0U
05
1H!
1C!
1T!
1Z!
1.!
14!
18!
0>
0=
0<
0;
0:
09
08
07
09"
0q!
0n!
0k!
0h!
0b!
0v
1<"
17"
14"
10"
1/"
1+"
1*"
1&"
1%"
1!"
1~!
1z!
1w!
1]!
1[!
1q
0k
1e
x^
x]
x\
x[
xZ
xY
xX
xV
0m
0:"
0|!
0#"
0("
0-"
05"
0s!
#70000
b0zzzzzzz !
b0zzzzzz !
b0zzzzz !
b0zzzz !
b0zzz !
b1zz !
b10z !
b101 !
b0zzzzzzz "
b0zzzzzz "
b0zzzzz "
b0zzzz "
b1zzz "
b11zz "
b110z "
b1100 "
0#
0t"
0s"
1r"
1q"
0p"
0o"
0n"
0m"
1|"
0{"
1z"
0y"
0x"
0w"
0v"
0u"
0a
1.
0Z
0[
1\
1]
0Y
0^
0X
0V
#75000
1#
1a
0.
0l"
0k"
0i"
0h"
0g"
0f"
0e"
1O!
0I!
1A!
0n
0l
0h
1f
1P
0\"
0["
0Y"
0X"
0W"
0V"
0U"
1<
1B!
0'!
1|
0z
1w
0t
1r
1o
0c
0W
1U
15
15"
02"
1-"
1("
1#"
1|!
1s!
0r!
0o!
0l!
0i!
0c!
0_!
1@!
1d
0V!
0E!
0;!
06!
0%!
0`
0T
0S
0R
0L
0I
1W!
0Q!
1L!
1<!
0K
0J!
0:!
00!
0)!
0$!
0y
19"
1q!
1n!
1k!
1h!
1b!
1v
0;"
06"
0."
0)"
0$"
0}!
0v!
1^
1[
1Z
1Y
1X
1V
1m
0s!
0|!
0#"
0("
12"
0f!
05"
1R!
0+!
0K!
1F!
1!!
0<!
1=!
0W!
1K
1:"
1|!
1#"
1("
15"
1s!
0<"
0]!
07"
0[!
0/"
0+"
0*"
0&"
0%"
0!"
0~!
0z!
0w!
0q
01!
1,!
0L!
0=!
1X!
1=!
12!
#80000
bz0000101 !
bz000101 !
bz00101 !
bz0101 !
bz101 !
bz01 !
bz1 !
bz !
bz0001100 "
bz001100 "
bz01100 "
bz1100 "
bz100 "
bz00 "
bz0 "
bz "
0#
zt"
zs"
zr"
zq"
zp"
zo"
zn"
zm"
z|"
z{"
zz"
zy"
zx"
zw"
zv"
zu"
0a
1.
#85000
1#
1a
0.
1l"
1k"
11"
1i"
1h"
1g"
1f"
1e"
1H"
1I"
1K"
1>!
1F"
1G"
0"!
1L"
1n
0C"
0S"
0A"
0Q"
1\"
0@"
0P"
1["
0?"
0O"
0>"
0N"
1Y"
0="
0M"
1X"
1W"
1V"
06
1U"
1;"
16"
02"
1f!
1."
1)"
1$"
1}!
1v!
1>
1=
1;
1:
19
18
17
0B!
0M!
1'!
0&!
0|
1x
0w
1u
0r
0o
1i
05
1<"
1]!
17"
1[!
0-"
1i!
1/"
1+"
1*"
1&"
1%"
1!"
1~!
1z!
1w!
1q
0Z!
0T!
0H!
08!
04!
0.!
1;!
1%!
1`
1T
1S
1R
0~
1y
0q!
0n!
0k!
0h!
0e!
0b!
0v
1k
0m
0Y
0]
0[
0V
0X
0^
1K!
0F!
0!!
0R!
0|!
0#"
1-"
0i!
12"
0f!
05"
0s!
1L!
0("
0-"
#90000
0#
0a
1.
#95000
1#
1a
0.
0k"
0i"
0h"
0g"
0f"
0e"
0I"
1J"
0K"
0L"
0n
1l
1C"
0T"
1A"
1Q"
1@"
0["
1?"
0Z"
1b"
1>"
0Y"
1="
0X"
0W"
0V"
0U"
0>
0=
0;
0:
09
08
07
0S!
1M!
0G!
0#!
0'!
1&!
0x
0u
1r
1o
1W
15
15"
02"
1-"
1("
1#"
1|!
1t!
1s!
1_!
0@!
0C!
1T!
06"
0."
0)"
0$"
0}!
0v!
1J!
1:!
10!
1)!
1$!
1~
1q!
1n!
1k!
1h!
1e!
1b!
1v
1m
05"
1c!
0Z
1]
07"
0[!
0/"
0+"
0*"
0&"
0%"
0!"
0~!
0z!
0w!
0q
0K!
1<!
0,!
1W!
0K
02!
1!!
0|!
1r!
0#"
1o!
0("
1l!
0-"
1i!
1f!
15"
0s!
0L!
0=!
0X!
1s!
1|!
1#"
1("
1-"
#100000
0#
0a
1.
#105000
1#
1a
0.
1k"
0j"
1i"
1h"
1g"
1f"
1u!
1e"
1^!
0H"
0J"
0A!
0>!
0F"
0G"
1L"
1n
1S"
1T"
1P"
1["
1O"
1Z"
1N"
1Y"
1M"
1X"
1W"
1V"
16
1U"
0;"
0:"
0Y!
0M!
07!
03!
0-!
1#!
1{
1z
1x
1t
0r
0o
0i
1g
0W
05
1H!
1C!
1Z!
1.!
14!
18!
0<"
1E!
0;!
0%!
0`
0T
0S
0R
0W!
1L!
0<!
1K
0J!
0:!
00!
0)!
0$!
0~
09"
0q!
0n!
0k!
0h!
0b!
0v
1;"
16"
1."
1+"
1)"
1&"
1$"
1!"
1}!
1z!
1v!
1[!
1q
0k
0m
1[
1Z
1Y
1^
1X
1V
1K!
1X!
1=!
1,!
12!
1:"
0_!
0|!
0#"
0("
0-"
05"
0s!
1<"
17"
1/"
1*"
1%"
1~!
1w!
1Q!
0L!
15"
0c!
1R!
12"
0f!
1-"
0i!
1("
0l!
1#"
0o!
1|!
0r!
1s!
#110000
0#
0a
1.
#115000
1#
1a
0.
1j"
1H"
1I"
1>!
1F"
1G"
1"!
0n
0l
1h
0C"
0S"
0T"
0A"
0\"
1d"
0@"
0P"
0["
0?"
0O"
0>"
0N"
0Y"
0="
0M"
0X"
0W"
0V"
0U"
1B!
1M!
1x!
1`!
0?!
1|
0{
0t
1o
05"
02"
0-"
0("
0#"
0|!
0t!
0s!
1f!
1@!
0d
0H!
0C!
1>
0Z!
0.!
04!
08!
0T!
1C!
1y!
1k
19"
1q!
1n!
1k!
1h!
1b!
1v
06"
0."
0)"
0$"
0}!
0v!
1-"
0e
0[
0Z
0Y
0^
0X
0V
1%
0]
1Z
0:"
1_!
1|!
1#"
1("
0-"
1i!
15"
1s!
07"
0[!
0/"
0+"
0*"
0&"
0%"
0!"
0~!
0z!
0w!
0q
1-
1,
1+
1*
1)
1(
1'
1&
05"
1c!
0("
1l!
0,
0*
0)
0(
0'
0&
12"
0#"
1o!
0|!
1r!
0s!
#120000
0#
0a
1.
#125000
1#
1a
0.
0l"
08"
0k"
0i"
0h"
0g"
0f"
0u!
0e"
1a!
1A!
1l
0f
1\"
1["
1Y"
1X"
1W"
1V"
06
1U"
0;"
0B!
15"
02"
1-"
1("
1#"
1|!
0x!
1s!
0`!
0@!
0|
0x
1r
1p
0o
1i
15
0<"
0]!
1T!
0C!
0y!
1V!
1;!
16!
1%!
1`
1T
1S
1R
1L
1I
1J!
1:!
10!
1)!
1$!
1~
04"
00"
1;"
16"
1."
1)"
1$"
1}!
1v!
1m
0%
1<"
1]!
1]
0Z
0X!
0R!
1+!
0!!
z-
z,
z+
z*
z)
z(
z'
z&
11!
0,!
0=!
02!
#130000
0#
0a
1.
#135000
1#
1a
0.
1k"
0j"
01"
1i"
1h"
1g"
1f"
1e"
0H"
0I"
0A!
0>!
0F"
0G"
0L"
1n
1C"
1S"
1T"
1C
1A"
1@"
1P"
1?"
1O"
1>"
1N"
1="
1M"
16
12"
1Y!
1S!
17!
13!
1-!
1?!
1'!
1t
0r
0p
0i
0g
1c
1W
0U
05
1G!
1H!
1C!
1Z!
1.!
14!
18!
09"
0q!
0n!
0k!
0b!
0v
17"
14"
10"
1/"
1+"
1*"
1&"
1%"
1!"
1~!
1z!
1w!
1[!
1q
0k
1e
x^
x]
x\
x[
xZ
xY
xX
xV
0m
1:"
0_!
0|!
0#"
0("
05"
0s!
15"
0c!
02"
#140000
b1zzzzzzz !
b11zzzzzz !
b111zzzzz !
b1111zzzz !
b11111zzz !
b111110zz !
b1111101z !
b11111010 !
b0zzzzzzz "
b0zzzzzz "
b0zzzzz "
b0zzzz "
b1zzz "
b10zz "
b100z "
b1000 "
0#
0t"
0s"
0r"
1q"
0p"
0o"
0n"
0m"
0|"
1{"
0z"
1y"
1x"
1w"
1v"
1u"
0a
1.
0Z
0[
0\
1]
0Y
0^
0X
0V
